begin
  ndims             1
  nvars             1
  size              50
  iproc             4
  ghost             3
  n_iter            20
  time_scheme       rk
  time_scheme_type  ssprk3
  par_space_type    conservative-1stage
  par_space_scheme  2
  dt                0.05
  screen_op_iter    20
  file_op_iter      1
  op_file_format    text
  op_overwrite      no
  model             linear-advection-diffusion-reaction
end
