begin
  ndims             1
  nvars             3
  size              201
  iproc             2
  ghost             3
  n_iter            80
  time_scheme       rk
  time_scheme_type  44
  hyp_space_scheme  weno5
  hyp_interp_type   characteristic
  dt                0.001
  screen_op_iter    1
  file_op_iter      9999
  ip_file_type      ascii
  op_file_format    text
  op_overwrite      no
  model             euler1d
end
