begin
  ndims               2
  nvars               1
  size                720 601
  iproc               6 4
  ghost               3
  n_iter              400000
  restart_iter        0
  time_scheme         rk
  time_scheme_type    ssprk3
  hyp_space_scheme    weno5
  hyp_flux_split      no
  hyp_interp_type     components
  par_space_type      nonconservative-1.5stage
  par_space_scheme    2
  dt                  0.0001
  conservation_check  yes
  screen_op_iter      100
  file_op_iter        10000
  ip_file_type        binary
  input_mode          serial
  op_file_format      text
  output_mode         serial
  op_overwrite        yes
  model               fp-power-system-1bus
end
