[SecFilterConfigs]
filter_name = EnKF
ensemble_size = 30
initial_time = 0
final_time = 5
cycle_length = 0.5
observation_operator_type = linear
observation_noise_type = gaussian
observation_spacing_type = fixed
observation_steps_per_filter_steps = 2
observation_chance_per_filter_steps = 0.5
screen_output = yes
screen_output_iter = 2
file_output = yes
file_output_iter = 1
decorrelate = yes
decorrelation_radius = 16
file_output_means_only = yes
background_errors_covariance_method = empirical
observation_errors_covariance_method = empirical
bservation_noise_level = 0.08
background_noise_level = 0.05
